OFF
8 12 0
1.0000000000000000 1.0000000000000000 1.0000000000000000
1.0000000000000000 1.0000000000000000 -1.0000000000000000
1.0000000000000000 -1.0000000000000000 1.0000000000000000
1.0000000000000000 -1.0000000000000000 -1.0000000000000000
-1.0000000000000000 1.0000000000000000 1.0000000000000000
-1.0000000000000000 1.0000000000000000 -1.0000000000000000
-1.0000000000000000 -1.0000000000000000 1.0000000000000000
-1.0000000000000000 -1.0000000000000000 -1.0000000000000000
3 4 2 0
3 2 7 3
3 6 5 7
3 1 7 5
3 0 3 1
3 4 1 5
3 4 6 2
3 2 6 7
3 6 4 5
3 1 3 7
3 0 2 3
3 4 0 1 
